<svg width="1850" height="1073" viewBox="0 0 1850 1073" fill="none" xmlns="http://www.w3.org/2000/svg">
<g clip-path="url(#clip0_285_1248)">
<path d="M0 0H1905.56L1920 1098.42H0V0Z" fill="#2B388F"/>
<mask id="mask0_285_1248" style="mask-type:alpha" maskUnits="userSpaceOnUse" x="0" y="0" width="1906" height="1115">
<path d="M0 0H1905.56V1114.47L0 1089.85V0Z" fill="url(#paint0_linear_285_1248)"/>
</mask>
<g mask="url(#mask0_285_1248)">
<g filter="url(#filter0_f_285_1248)">
<path d="M1013.93 1158.24C1451.09 910.849 1308.13 1370.11 1574.68 1414.25C1841.24 1458.39 2045.39 981.675 1453.44 621.683C861.487 261.69 266.859 1581.01 1013.93 1158.24Z" fill="#2B388F"/>
</g>
<g filter="url(#filter1_f_285_1248)">
<path d="M1102.08 244.43C1237.48 473.849 1386.57 39.2936 1666.5 438.683C1946.43 838.072 2196.69 39.2937 1696.17 -222.78C1195.64 -484.854 941.103 -28.3224 1102.08 244.43Z" fill="#2B388F"/>
</g>
<g filter="url(#filter2_f_285_1248)">
<path d="M457.101 -55.0796C810.667 144.969 1209.13 -322.388 1282.68 -13.0394C1356.22 296.309 764.259 -2.72784 207.625 470.813C-349.008 944.354 -147.12 -396.949 457.101 -55.0796Z" fill="#2B388F"/>
</g>
<path d="M793.822 457.174L1389.43 299.717V480.033L793.822 640.173L793.822 457.174Z" fill="url(#paint1_linear_285_1248)"/>
<path d="M148.661 1024.99L437.547 964.335L435.485 1051.36L146.568 1113.3L148.661 1024.99Z" fill="url(#paint2_linear_285_1248)"/>
<path d="M1260.66 1062.33L1260.66 929.947L1694.96 815.414V945.844L1260.66 1062.33Z" stroke="#5371E7" stroke-opacity="0.3"/>
<path opacity="0.5" d="M68.2748 1097.67L66.411 1096.56L48.3326 1086.17L46.4689 1085.06L48.3326 1084.13L66.411 1073.65L68.2748 1072.53V1074.67V1095.54V1097.67Z" fill="#2B388F"/>
<path opacity="0.5" d="M1845.27 923.12L1847.13 922.006L1865.21 911.617L1867.08 910.504L1865.21 909.576L1847.13 899.094L1845.27 897.981V900.115V920.986V923.12Z" fill="#2B388F"/>
</g>
<g opacity="0.2" clip-path="url(#clip1_285_1248)">
<path d="M162.545 544.108L159.288 542.401L125.859 523.119L122.602 521.242L125.859 519.364L159.288 500.082L162.545 498.205V502.129V540.354V544.108Z" fill="white" fill-opacity="0.06"/>
<path d="M162.545 498.205L159.288 496.327L125.859 477.215L122.602 475.168L125.859 473.461L159.288 454.178L162.545 452.301V456.226V494.45V498.205Z" fill="white" fill-opacity="0.06"/>
<path d="M122.602 521.241V517.487V479.092V475.167L125.859 477.215L159.288 496.327L162.545 498.204L159.288 500.081L125.859 519.364L122.602 521.241Z" fill="white" fill-opacity="0.06"/>
<path d="M122.602 567.315V563.39V524.995V521.241L125.859 523.118L159.288 542.401L162.545 544.108L159.288 546.155L125.859 565.267L122.602 567.315Z" fill="white" fill-opacity="0.06"/>
<path d="M122.602 613.219L119.173 611.342L85.7449 592.059L82.6592 590.182L85.7449 588.305L119.173 569.022L122.602 567.315V571.069V609.294V613.219Z" fill="white" fill-opacity="0.06"/>
<path d="M122.602 567.315L119.173 565.267L85.7449 546.155L82.6592 544.108L85.7449 542.401L119.173 523.118L122.602 521.241V524.995V563.39V567.315Z" fill="white" fill-opacity="0.06"/>
<path d="M122.602 475.168L119.173 473.462L85.7449 454.179L82.6592 452.302L85.7449 450.254L119.173 431.142L122.602 429.265V433.19V471.414V475.168Z" fill="white" fill-opacity="0.06"/>
<path d="M222.545 467.488L219.116 465.441L185.859 446.329L182.431 444.281L185.859 442.574L219.116 423.292L222.545 421.244V425.169V463.564V467.488Z" fill="#26A8E0"/>
<path d="M82.6592 406.227V402.473V364.078V360.324L85.7449 362.371L119.173 381.313L122.602 383.361L119.173 385.067L85.7449 404.35L82.6592 406.227Z" fill="#9EDBF2"/>
<path d="M170.088 378.583V374.828V336.433V332.679L173.516 334.727L206.945 353.669L210.031 355.716L206.945 357.593L173.516 376.706L170.088 378.583Z" fill="white"/>
<path d="M82.6592 498.205V494.45V456.226V452.301L85.7449 454.178L119.173 473.461L122.431 475.168L119.173 477.215L85.7449 496.327L82.6592 498.205Z" fill="white" fill-opacity="0.06"/>
<path d="M82.6592 544.108V540.354V502.129V498.205L85.7449 500.082L119.173 519.364L122.602 521.242L119.173 523.119L85.7449 542.401L82.6592 544.108Z" fill="white" fill-opacity="0.06"/>
<path d="M82.6592 636.256V632.331V593.936V590.182L85.7449 592.059L119.173 611.342L122.602 613.219L119.173 615.096L85.7449 634.208L82.6592 636.256Z" fill="white" fill-opacity="0.06"/>
<path d="M82.6595 590.182L79.2309 588.305L45.8023 569.022L42.7166 567.316L45.8023 565.268L79.2309 546.156L82.6595 544.279V548.033V586.428V590.182Z" fill="white" fill-opacity="0.06"/>
<path d="M82.6595 498.205L79.2309 496.327L45.8023 477.215L42.7166 475.168L45.8023 473.291L79.2309 454.178L82.6595 452.301V456.226V494.45V498.205Z" fill="white" fill-opacity="0.06"/>
<path d="M82.6595 452.301L79.2309 450.253L45.8023 431.141L42.7166 429.264L45.8023 427.387L79.2309 408.275L82.6595 406.227V409.981V448.547V452.301Z" fill="white" fill-opacity="0.06"/>
<path d="M82.6595 406.227L79.2309 404.35L45.8023 385.238L42.7166 383.361L45.8023 381.313L79.2309 362.371L82.6595 360.324V364.078V402.473V406.227Z" fill="white"/>
<path d="M42.7166 383.361V379.436V341.041V337.287L45.8023 339.164L79.2309 358.447L82.6595 360.324L79.2309 362.372L45.8023 381.313L42.7166 383.361Z" fill="#C7E8F5"/>
<path d="M42.7166 475.168V471.414V433.19V429.265L45.8023 431.142L79.2309 450.254L82.6595 452.302L79.2309 454.179L45.8023 473.462L42.7166 475.168Z" fill="white"/>
<path d="M42.7166 521.241V517.487V479.092V475.167L45.8023 477.215L79.2309 496.327L82.6595 498.204L79.2309 500.081L45.8023 519.364L42.7166 521.241Z" fill="white"/>
<path d="M42.7166 567.145V563.39V525.166V521.241L45.8023 523.118L79.2309 542.401L82.6595 544.108L79.2309 546.155L45.8023 565.267L42.7166 567.145Z" fill="white" fill-opacity="0.06"/>
<path d="M42.7166 613.219V609.294V571.069V567.315L45.8023 569.022L79.2309 588.305L82.6595 590.182L79.2309 592.059L45.8023 611.342L42.7166 613.219Z" fill="white" fill-opacity="0.06"/>
<path d="M150.202 730.964V727.209V688.985V685.06L153.459 686.937L186.888 706.05L190.145 707.927L186.888 709.974L153.459 729.087L150.202 730.964Z" fill="white" fill-opacity="0.06"/>
<path d="M42.7166 659.122L39.1166 657.245L6.03094 638.133L2.60236 636.256L6.03094 634.208L39.1166 615.096L42.7166 613.219V616.973V655.197V659.122Z" fill="white" fill-opacity="0.06"/>
<path d="M42.7166 613.219L39.1166 611.342L6.03094 592.059L2.60236 590.182L6.03094 588.305L39.1166 569.022L42.7166 567.315V571.069V609.294V613.219Z" fill="white" fill-opacity="0.06"/>
<path d="M42.7166 567.145L39.1166 565.267L6.03094 546.155L2.60236 544.108L6.03094 542.401L39.1166 523.118L42.7166 521.241V525.166V563.39V567.145Z" fill="white" fill-opacity="0.06"/>
<path d="M42.7166 429.265L39.1166 427.388L6.03094 408.275L2.60236 406.228L6.03094 404.351L39.1166 385.238L42.7166 383.361V387.115V425.34V429.265Z" fill="white" fill-opacity="0.06"/>
<path d="M42.7166 383.361L39.1166 381.313L6.03094 362.372L2.60236 360.324L6.03094 358.447L39.1166 339.164L42.7166 337.287V341.041V379.436V383.361Z" fill="#26A8E0"/>
<path d="M2.60236 360.324L2.60236 356.399L2.60236 318.174V314.42L6.03094 316.127L39.1166 335.41L42.7166 337.287L39.1166 339.164L6.03094 358.447L2.60236 360.324Z" fill="#9EDBF2"/>
<path d="M2.60236 406.227L2.60236 402.473L2.60236 364.078V360.324L6.03094 362.371L39.1166 381.313L42.5452 383.361L39.1166 385.067L6.03094 404.35L2.60236 406.227Z" fill="#80D4F2"/>
<path d="M2.60236 590.182L2.60236 586.428L2.60236 548.033V544.108L6.03094 546.156L39.1166 565.268L42.7166 567.316L39.1166 569.022L6.03094 588.305L2.60236 590.182Z" fill="white" fill-opacity="0.06"/>
<path d="M83.0024 736.254V732.499V694.104V690.35L86.431 692.227L119.688 711.51L123.117 713.217L119.688 715.264L86.431 734.376L83.0024 736.254Z" fill="white" fill-opacity="0.06"/>
<path d="M2.60236 682.158L2.60236 678.234L2.60236 640.009V636.255L6.03094 638.132L39.1166 657.244L42.5452 659.121L39.1166 660.999L6.03094 680.281L2.60236 682.158Z" fill="#26A8E0"/>
<path d="M2.60244 682.158L-0.826142 680.281L-34.0833 661.169L-37.5118 659.121L-34.0833 657.244L-0.826142 638.132L2.60244 636.255V640.009V678.234V682.158Z" fill="white"/>
<path d="M2.60244 636.256L-0.826142 634.208L-34.0833 615.096L-37.5118 613.219L-34.0833 611.342L-0.826142 592.059L2.60244 590.182V593.936V632.331V636.256Z" fill="white" fill-opacity="0.06"/>
<path d="M2.60244 590.182L-0.826142 588.305L-34.0833 569.022L-37.5118 567.316L-34.0833 565.268L-0.826142 546.156L2.60244 544.108V548.033V586.428V590.182Z" fill="white" fill-opacity="0.06"/>
<path d="M2.60244 406.227L-0.826142 404.35L-34.0833 385.067L-37.5118 383.361L-34.0833 381.313L-0.826142 362.371L2.60244 360.324V364.078V402.473V406.227Z" fill="white" fill-opacity="0.06"/>
<path d="M2.60244 360.324L-0.826142 358.447L-34.0833 339.164L-37.5118 337.287L-34.0833 335.41L-0.826142 316.127L2.60244 314.42V318.174V356.399V360.324Z" fill="white"/>
<path d="M-37.5118 337.287V333.533V295.138V291.213L-34.0833 293.261L-0.826142 312.373L2.60244 314.421L-0.826142 316.127L-34.0833 335.41L-37.5118 337.287Z" fill="white"/>
<path d="M-37.5118 429.265V425.34V387.115V383.361L-34.0833 385.068L-0.826142 404.351L2.60244 406.228L-0.826142 408.275L-34.0833 427.388L-37.5118 429.265Z" fill="white" fill-opacity="0.06"/>
<path d="M-37.5118 613.219V609.294V571.069V567.315L-34.0833 569.022L-0.826142 588.305L2.60244 590.182L-0.826142 592.059L-34.0833 611.342L-37.5118 613.219Z" fill="white" fill-opacity="0.06"/>
<path d="M-37.5118 659.122V655.197V616.973V613.219L-34.0833 615.096L-0.826142 634.208L2.60244 636.256L-0.826142 637.962L-34.0833 657.245L-37.5118 659.122Z" fill="white" fill-opacity="0.06"/>
<path d="M2.60252 440.015V406.227L-0.826066 408.275L-34.7689 427.387L-38.0261 429.264L-34.7689 431.824L-29.9689 434.554H-25.1689C-15.5689 434.042 -5.96891 435.919 2.60252 440.015Z" fill="#9EDBF2"/>
<path d="M5.85951 408.275L2.60236 406.398L2.60236 440.186C6.03093 442.063 9.28806 444.281 12.3738 446.841L39.2881 431.824L42.5452 429.947L39.2881 428.07L5.85951 408.275Z" fill="white"/>
<path d="M12.374 446.84L16.1454 450.253C20.9454 455.031 24.8883 460.662 27.6311 466.805L39.2882 473.461L42.5454 475.338V429.264L39.2882 431.823L12.374 446.84Z" fill="white"/>
<path d="M27.6308 466.635C29.6879 471.413 31.2308 476.532 31.9165 481.651L39.2879 476.873L42.5451 474.996L39.2879 473.119L27.6308 466.635Z" fill="white"/>
<path d="M31.7453 481.31C32.2596 484.552 32.431 487.624 32.431 490.866C32.6024 498.375 31.231 505.883 28.3167 512.879L38.9453 519.193L42.2024 521.07V475.167L38.9453 476.873L31.7453 481.31Z" fill="white"/>
<path d="M28.4881 513.051C23.3452 525.337 14.2595 535.405 2.60236 541.548V544.108L5.85951 542.231L39.1166 522.948L42.3738 521.071L39.1166 519.194L28.4881 513.051Z" fill="white" fill-opacity="0.06"/>
<path d="M0.0310059 542.742L2.60243 544.108V541.548L0.0310059 542.742Z" fill="white" fill-opacity="0.06"/>
<path d="M2.60215 544.108L0.0307302 542.742C-7.68355 546.326 -16.0836 548.032 -24.4836 547.862H-37.3407V566.974L-34.0835 565.097L-0.655 545.814L2.60215 544.108Z" fill="white"/>
<path d="M31.9167 731.476L1.57379 715.265L1.57379 748.199L31.9167 731.476Z" fill="white"/>
<path d="M2.60219 686.084V682.16L-0.654966 684.037L-15.7407 692.74C-9.56923 692.74 -3.39781 691.886 2.60219 691.033V686.084Z" fill="white"/>
<path d="M5.85951 684.037L2.60236 682.16L2.60236 691.204C6.88807 691.204 11.0023 690.18 15.1166 689.327L5.85951 684.037Z" fill="white"/>
<path d="M5.85951 680.282L2.60236 682.159L5.85951 684.036L15.1166 689.326C24.3738 687.62 33.6309 685.231 42.5452 682.159V659.122L39.2881 660.999L5.85951 680.282Z" fill="white"/>
<path d="M42.545 682.159C50.4308 679.258 58.3165 676.016 65.8593 672.091L46.1451 660.828L42.7165 658.951V681.988V682.159H42.545Z" fill="white"/>
<path d="M45.9736 657.075L42.545 658.952L45.9736 660.829L65.6879 672.091C71.5164 669.361 77.1736 666.119 82.6593 662.706V636.085L79.2307 637.963L45.9736 657.075Z" fill="#80D4F2"/>
<path d="M135.631 643.935L132.202 642.057V668.849C139.402 664.241 146.259 659.293 152.945 653.832L135.631 643.935Z" fill="white" fill-opacity="0.06"/>
<path d="M122.602 616.973V613.219L119.345 615.096L85.9163 634.379L82.6592 636.256L85.9163 638.133L103.231 648.201C108.545 643.935 113.516 639.327 118.316 634.208L122.259 630.283L122.602 616.973Z" fill="#C7E8F5"/>
<path d="M199.574 613.219L159.459 636.256L203.002 659.975L199.574 613.219Z" fill="white" fill-opacity="0.06"/>
<path d="M132.717 618.85L125.859 614.925L122.602 613.048V629.942C126.031 627.041 129.631 622.775 132.717 618.85Z" fill="white"/>
<path d="M125.859 612.024L122.602 613.901L125.859 615.778L132.717 619.703C138.202 613.389 143.174 606.564 147.802 599.567L125.859 612.024Z" fill="white"/>
<path d="M125.859 569.022L122.602 566.975V612.878L125.859 611.001L147.288 598.544C150.202 594.448 152.774 590.012 155.174 585.575L125.859 569.022Z" fill="white" fill-opacity="0.06"/>
<path d="M162.545 548.033V544.279L159.288 546.156L125.859 565.439L122.602 567.316L125.859 569.193L155.174 586.086C157.917 580.967 160.317 575.848 162.545 571.07V548.033Z" fill="#26A8E0"/>
<path d="M170.259 548.715L165.974 546.156L162.717 544.279V570.558C165.631 563.391 168.202 556.053 170.259 548.715Z" fill="white" fill-opacity="0.06"/>
<path d="M165.974 500.082L162.717 498.205V544.108L165.974 542.231L173.002 537.965C175.231 527.726 176.774 517.317 177.459 506.737L165.974 500.082Z" fill="white" fill-opacity="0.06"/>
<path d="M162.545 498.204L165.974 500.081L177.459 506.907V491.037V489.331L165.288 496.327L162.545 498.204Z" fill="white" fill-opacity="0.06"/>
<path d="M173.517 445.988L165.974 450.254L162.717 452.131L165.974 454.008L176.088 459.81C175.231 455.202 174.545 450.595 173.517 445.988Z" fill="white" fill-opacity="0.06"/>
<path d="M159.288 450.253L162.545 452.301V411.176L161.345 407.422L159.802 408.275L125.859 427.387L122.602 429.264L125.859 431.312L159.288 450.253Z" fill="white" fill-opacity="0.06"/>
<path d="M162.545 411.177V452.131L165.802 450.254L173.345 445.817C170.945 434.043 167.345 422.439 162.545 411.177Z" fill="white" fill-opacity="0.06"/>
<path d="M159.288 408.275L160.831 407.422C160.831 406.569 160.145 405.545 159.631 404.521L126.031 385.068L122.773 383.191V429.094L126.031 427.217L159.288 408.275Z" fill="white" fill-opacity="0.06"/>
<path d="M159.288 404.351C153.974 393.259 147.631 382.679 140.259 372.781L125.174 381.143L121.917 383.02L125.174 384.897L159.288 404.351Z" fill="white" fill-opacity="0.06"/>
<path d="M140.602 372.952C135.117 365.444 129.117 358.277 122.602 351.451V383.361L125.859 381.484L140.602 372.952Z" fill="#C7E8F5"/>
<path d="M122.602 383.361V351.45L118.659 347.526C116.945 345.648 115.231 344.113 113.516 342.406L85.9163 358.276L82.6592 360.153L85.9163 362.03L119.345 381.142L122.602 383.361Z" fill="white" fill-opacity="0.06"/>
<path d="M79.2307 316.297L45.9736 335.409L42.545 337.457L45.9736 339.163L79.2307 358.446L82.6593 360.323V318.515L79.2307 316.297Z" fill="#26A8E0"/>
<path d="M42.545 299.233V337.286L45.9736 335.409L79.2307 316.297C67.5736 309.301 55.2308 303.499 42.545 299.233Z" fill="white" fill-opacity="0.06"/>
<path d="M119.688 266.64L156.202 283.705L119.688 304.694V266.64Z" fill="white" fill-opacity="0.06"/>
<path d="M33.8023 296.674L5.85951 312.373L2.60236 314.421L5.85951 316.127L39.1166 335.41L42.5452 337.287V299.233L33.8023 296.674Z" fill="#C7E8F5"/>
<path d="M2.60242 290.018L2.60242 314.42L5.85957 312.543L33.8024 296.844C23.5167 293.772 13.0596 291.554 2.60242 290.018Z" fill="white"/>
<path d="M-32.5403 288.483L-34.7689 289.507L-38.0261 291.384L-34.7689 293.261L-1.51177 312.544L1.74538 314.421V290.019C-7.34033 288.995 -16.2546 288.312 -25.3403 288.312L-32.5403 288.483Z" fill="#C7E8F5"/>
</g>
<g opacity="0.2" clip-path="url(#clip2_285_1248)">
<path d="M1694 506.108L1697.26 504.401L1730.69 485.119L1733.94 483.242L1730.69 481.364L1697.26 462.082L1694 460.205V464.129V502.354V506.108Z" fill="white" fill-opacity="0.06"/>
<path d="M1694 460.205L1697.26 458.327L1730.69 439.215L1733.94 437.168L1730.69 435.461L1697.26 416.178L1694 414.301V418.226V456.45V460.205Z" fill="white" fill-opacity="0.06"/>
<path d="M1733.94 483.241V479.487V441.092V437.167L1730.69 439.215L1697.26 458.327L1694 460.204L1697.26 462.081L1730.69 481.364L1733.94 483.241Z" fill="white" fill-opacity="0.06"/>
<path d="M1733.94 529.315V525.39V486.995V483.241L1730.69 485.118L1697.26 504.401L1694 506.108L1697.26 508.155L1730.69 527.267L1733.94 529.315Z" fill="white" fill-opacity="0.06"/>
<path d="M1733.94 575.219L1737.37 573.342L1770.8 554.059L1773.89 552.182L1770.8 550.305L1737.37 531.022L1733.94 529.315V533.069V571.294V575.219Z" fill="white" fill-opacity="0.06"/>
<path d="M1733.94 529.315L1737.37 527.267L1770.8 508.155L1773.89 506.108L1770.8 504.401L1737.37 485.118L1733.94 483.241V486.995V525.39V529.315Z" fill="white" fill-opacity="0.06"/>
<path d="M1733.94 437.168L1737.37 435.462L1770.8 416.179L1773.89 414.302L1770.8 412.254L1737.37 393.142L1733.94 391.265V395.19V433.414V437.168Z" fill="white" fill-opacity="0.06"/>
<path d="M1634 429.488L1637.43 427.441L1670.69 408.329L1674.11 406.281L1670.69 404.574L1637.43 385.292L1634 383.244V387.169V425.564V429.488Z" fill="#26A8E0"/>
<path opacity="0.5" d="M1828.27 988.12L1830.13 987.006L1848.21 976.617L1850.08 975.504L1848.21 974.576L1830.13 964.094L1828.27 962.981V965.115V985.986V988.12Z" fill="white"/>
<path d="M1773.89 368.227V364.473V326.078V322.324L1770.8 324.371L1737.37 343.313L1733.94 345.361L1737.37 347.067L1770.8 366.35L1773.89 368.227Z" fill="#9EDBF2"/>
<path d="M1686.46 340.583V336.828V298.433V294.679L1683.03 296.727L1649.6 315.669L1646.51 317.716L1649.6 319.593L1683.03 338.706L1686.46 340.583Z" fill="white"/>
<path d="M1773.89 460.205V456.45V418.226V414.301L1770.8 416.178L1737.37 435.461L1734.11 437.168L1737.37 439.215L1770.8 458.327L1773.89 460.205Z" fill="white" fill-opacity="0.06"/>
<path d="M1773.89 506.108V502.354V464.129V460.205L1770.8 462.082L1737.37 481.364L1733.94 483.242L1737.37 485.119L1770.8 504.401L1773.89 506.108Z" fill="white" fill-opacity="0.06"/>
<path d="M1773.89 598.256V594.331V555.936V552.182L1770.8 554.059L1737.37 573.342L1733.94 575.219L1737.37 577.096L1770.8 596.208L1773.89 598.256Z" fill="white" fill-opacity="0.06"/>
<path d="M1773.89 552.182L1777.31 550.305L1810.74 531.022L1813.83 529.316L1810.74 527.268L1777.31 508.156L1773.89 506.279V510.033V548.428V552.182Z" fill="white" fill-opacity="0.06"/>
<path d="M1773.89 460.205L1777.31 458.327L1810.74 439.215L1813.83 437.168L1810.74 435.291L1777.31 416.178L1773.89 414.301V418.226V456.45V460.205Z" fill="white" fill-opacity="0.06"/>
<path d="M1773.89 414.301L1777.31 412.253L1810.74 393.141L1813.83 391.264L1810.74 389.387L1777.31 370.275L1773.89 368.227V371.981V410.547V414.301Z" fill="white" fill-opacity="0.06"/>
<path d="M1773.89 368.227L1777.31 366.35L1810.74 347.238L1813.83 345.361L1810.74 343.313L1777.31 324.371L1773.89 322.324V326.078V364.473V368.227Z" fill="white"/>
<path d="M1813.83 345.361V341.436V303.041V299.287L1810.74 301.164L1777.31 320.447L1773.89 322.324L1777.31 324.372L1810.74 343.313L1813.83 345.361Z" fill="#C7E8F5"/>
<path d="M1813.83 437.168V433.414V395.19V391.265L1810.74 393.142L1777.31 412.254L1773.89 414.302L1777.31 416.179L1810.74 435.462L1813.83 437.168Z" fill="white"/>
<path d="M1813.83 483.241V479.487V441.092V437.167L1810.74 439.215L1777.31 458.327L1773.89 460.204L1777.31 462.081L1810.74 481.364L1813.83 483.241Z" fill="white"/>
<path d="M1813.83 529.145V525.39V487.166V483.241L1810.74 485.118L1777.31 504.401L1773.89 506.108L1777.31 508.155L1810.74 527.267L1813.83 529.145Z" fill="white" fill-opacity="0.06"/>
<path d="M1813.83 575.219V571.294V533.069V529.315L1810.74 531.022L1777.31 550.305L1773.89 552.182L1777.31 554.059L1810.74 573.342L1813.83 575.219Z" fill="white" fill-opacity="0.06"/>
<path d="M1706.34 692.964V689.209V650.985V647.06L1703.09 648.937L1669.66 668.05L1666.4 669.927L1669.66 671.974L1703.09 691.087L1706.34 692.964Z" fill="white" fill-opacity="0.06"/>
<path d="M1813.83 621.122L1817.43 619.245L1850.51 600.133L1853.94 598.256L1850.51 596.208L1817.43 577.096L1813.83 575.219V578.973V617.197V621.122Z" fill="white" fill-opacity="0.06"/>
<path d="M1813.83 575.219L1817.43 573.342L1850.51 554.059L1853.94 552.182L1850.51 550.305L1817.43 531.022L1813.83 529.315V533.069V571.294V575.219Z" fill="white" fill-opacity="0.06"/>
<path d="M1813.83 529.145L1817.43 527.267L1850.51 508.155L1853.94 506.108L1850.51 504.401L1817.43 485.118L1813.83 483.241V487.166V525.39V529.145Z" fill="white" fill-opacity="0.06"/>
<path d="M1813.83 391.265L1817.43 389.388L1850.51 370.275L1853.94 368.228L1850.51 366.351L1817.43 347.238L1813.83 345.361V349.115V387.34V391.265Z" fill="white" fill-opacity="0.06"/>
<path d="M1813.83 345.361L1817.43 343.313L1850.51 324.372L1853.94 322.324L1850.51 320.447L1817.43 301.164L1813.83 299.287V303.041V341.436V345.361Z" fill="#26A8E0"/>
<path d="M1853.94 322.324V318.399V280.174V276.42L1850.51 278.127L1817.43 297.41L1813.83 299.287L1817.43 301.164L1850.51 320.447L1853.94 322.324Z" fill="#9EDBF2"/>
<path d="M1853.94 368.227V364.473V326.078V322.324L1850.51 324.371L1817.43 343.313L1814 345.361L1817.43 347.067L1850.51 366.35L1853.94 368.227Z" fill="#80D4F2"/>
<path d="M1853.94 552.182V548.428V510.033V506.108L1850.51 508.156L1817.43 527.268L1813.83 529.316L1817.43 531.022L1850.51 550.305L1853.94 552.182Z" fill="white" fill-opacity="0.06"/>
<path d="M1773.54 698.254V694.499V656.104V652.35L1770.11 654.227L1736.86 673.51L1733.43 675.217L1736.86 677.264L1770.11 696.376L1773.54 698.254Z" fill="white" fill-opacity="0.06"/>
<path d="M1853.94 644.158V640.234V602.009V598.255L1850.51 600.132L1817.43 619.244L1814 621.121L1817.43 622.999L1850.51 642.281L1853.94 644.158Z" fill="#26A8E0"/>
<path d="M1850.69 370.275L1853.94 368.398V402.186C1850.51 404.063 1847.26 406.281 1844.17 408.841L1817.26 393.824L1814 391.947L1817.26 390.07L1850.69 370.275Z" fill="white"/>
<path d="M1844.17 408.84L1840.4 412.253C1835.6 417.031 1831.66 422.662 1828.91 428.805L1817.26 435.461L1814 437.338V391.264L1817.26 393.823L1844.17 408.84Z" fill="white"/>
<path d="M1828.91 428.635C1826.86 433.413 1825.31 438.532 1824.63 443.651L1817.26 438.873L1814 436.996L1817.26 435.119L1828.91 428.635Z" fill="white"/>
<path d="M1824.8 443.31C1824.29 446.552 1824.11 449.624 1824.11 452.866C1823.94 460.375 1825.31 467.883 1828.23 474.879L1817.6 481.193L1814.34 483.07V437.167L1817.6 438.873L1824.8 443.31Z" fill="white"/>
<path d="M1828.06 475.051C1833.2 487.337 1842.29 497.405 1853.94 503.548V506.108L1850.69 504.231L1817.43 484.948L1814.17 483.071L1817.43 481.194L1828.06 475.051Z" fill="white" fill-opacity="0.06"/>
<path d="M1824.63 693.476L1854.97 677.265V710.199L1824.63 693.476Z" fill="white"/>
<path d="M1850.69 646.037L1853.94 644.16V653.204C1849.66 653.204 1845.54 652.18 1841.43 651.327L1850.69 646.037Z" fill="white"/>
<path d="M1850.69 642.282L1853.94 644.159L1850.69 646.036L1841.43 651.326C1832.17 649.62 1822.91 647.231 1814 644.159V621.122L1817.26 622.999L1850.69 642.282Z" fill="white"/>
<path d="M1814 644.159C1806.11 641.258 1798.23 638.016 1790.69 634.091L1810.4 622.828L1813.83 620.951V643.988V644.159H1814Z" fill="white"/>
<path d="M1810.57 619.075L1814 620.952L1810.57 622.829L1790.86 634.091C1785.03 631.361 1779.37 628.119 1773.89 624.706V598.085L1777.31 599.963L1810.57 619.075Z" fill="#80D4F2"/>
<path d="M1720.91 605.935L1724.34 604.057V630.849C1717.14 626.241 1710.29 621.293 1703.6 615.832L1720.91 605.935Z" fill="white" fill-opacity="0.06"/>
<path d="M1733.94 578.973V575.219L1737.2 577.096L1770.63 596.379L1773.89 598.256L1770.63 600.133L1753.31 610.201C1748 605.935 1743.03 601.327 1738.23 596.208L1734.29 592.283L1733.94 578.973Z" fill="#C7E8F5"/>
<path d="M1656.97 575.219L1697.09 598.256L1653.54 621.975L1656.97 575.219Z" fill="white" fill-opacity="0.06"/>
<path d="M1723.83 580.85L1730.69 576.925L1733.94 575.048V591.942C1730.51 589.041 1726.91 584.775 1723.83 580.85Z" fill="white"/>
<path d="M1730.69 574.024L1733.94 575.901L1730.69 577.778L1723.83 581.703C1718.34 575.389 1713.37 568.564 1708.74 561.567L1730.69 574.024Z" fill="white"/>
<path d="M1730.69 531.022L1733.94 528.975V574.878L1730.69 573.001L1709.26 560.544C1706.34 556.448 1703.77 552.012 1701.37 547.575L1730.69 531.022Z" fill="white" fill-opacity="0.06"/>
<path d="M1694 510.033V506.279L1697.26 508.156L1730.69 527.439L1733.94 529.316L1730.69 531.193L1701.37 548.086C1698.63 542.967 1696.23 537.848 1694 533.07V510.033Z" fill="#26A8E0"/>
<path d="M1686.29 510.715L1690.57 508.156L1693.83 506.279V532.558C1690.91 525.391 1688.34 518.053 1686.29 510.715Z" fill="white" fill-opacity="0.06"/>
<path d="M1690.57 462.082L1693.83 460.205V506.108L1690.57 504.231L1683.54 499.965C1681.31 489.726 1679.77 479.317 1679.09 468.737L1690.57 462.082Z" fill="white" fill-opacity="0.06"/>
<path d="M1694 460.204L1690.57 462.081L1679.09 468.907V453.037V451.331L1691.26 458.327L1694 460.204Z" fill="white" fill-opacity="0.06"/>
<path d="M1683.03 407.988L1690.57 412.254L1693.83 414.131L1690.57 416.008L1680.46 421.81C1681.31 417.202 1682 412.595 1683.03 407.988Z" fill="white" fill-opacity="0.06"/>
<path d="M1697.26 412.253L1694 414.301V373.176L1695.2 369.422L1696.74 370.275L1730.69 389.387L1733.94 391.264L1730.69 393.312L1697.26 412.253Z" fill="white" fill-opacity="0.06"/>
<path d="M1694 373.177V414.131L1690.74 412.254L1683.2 407.817C1685.6 396.043 1689.2 384.439 1694 373.177Z" fill="white" fill-opacity="0.06"/>
<path d="M1697.26 370.275L1695.71 369.422C1695.71 368.569 1696.4 367.545 1696.91 366.521L1730.51 347.068L1733.77 345.191V391.094L1730.51 389.217L1697.26 370.275Z" fill="white" fill-opacity="0.06"/>
<path d="M1697.26 366.351C1702.57 355.259 1708.91 344.679 1716.29 334.781L1731.37 343.143L1734.63 345.02L1731.37 346.897L1697.26 366.351Z" fill="white" fill-opacity="0.06"/>
<path d="M1715.94 334.952C1721.43 327.444 1727.43 320.277 1733.94 313.451V345.361L1730.69 343.484L1715.94 334.952Z" fill="#C7E8F5"/>
<path d="M1733.94 345.361V313.45L1737.89 309.526C1739.6 307.648 1741.31 306.113 1743.03 304.406L1770.63 320.276L1773.89 322.153L1770.63 324.03L1737.2 343.142L1733.94 345.361Z" fill="white" fill-opacity="0.06"/>
<path d="M1777.31 278.297L1810.57 297.409L1814 299.457L1810.57 301.163L1777.31 320.446L1773.89 322.323V280.515L1777.31 278.297Z" fill="#26A8E0"/>
<path d="M1814 261.233V299.286L1810.57 297.409L1777.31 278.297C1788.97 271.301 1801.31 265.499 1814 261.233Z" fill="white" fill-opacity="0.06"/>
<path d="M1736.86 228.64L1700.34 245.705L1736.86 266.694V228.64Z" fill="white" fill-opacity="0.06"/>
<path d="M1822.74 258.674L1850.69 274.373L1853.94 276.421L1850.69 278.127L1817.43 297.41L1814 299.287V261.233L1822.74 258.674Z" fill="#C7E8F5"/>
<path d="M1853.94 252.018V276.42L1850.69 274.543L1822.74 258.844C1833.03 255.772 1843.49 253.554 1853.94 252.018Z" fill="white"/>
</g>
</g>
<defs>
<filter id="filter0_f_285_1248" x="479.298" y="373.696" width="1542.45" height="1228.41" filterUnits="userSpaceOnUse" color-interpolation-filters="sRGB">
<feFlood flood-opacity="0" result="BackgroundImageFix"/>
<feBlend mode="normal" in="SourceGraphic" in2="BackgroundImageFix" result="shape"/>
<feGaussianBlur stdDeviation="92.5" result="effect1_foregroundBlur_285_1248"/>
</filter>
<filter id="filter1_f_285_1248" x="918.994" y="-436.172" width="1198.96" height="1119.68" filterUnits="userSpaceOnUse" color-interpolation-filters="sRGB">
<feFlood flood-opacity="0" result="BackgroundImageFix"/>
<feBlend mode="normal" in="SourceGraphic" in2="BackgroundImageFix" result="shape"/>
<feGaussianBlur stdDeviation="67.5" result="effect1_foregroundBlur_285_1248"/>
</filter>
<filter id="filter2_f_285_1248" x="-365.097" y="-368.215" width="1899.99" height="1187.46" filterUnits="userSpaceOnUse" color-interpolation-filters="sRGB">
<feFlood flood-opacity="0" result="BackgroundImageFix"/>
<feBlend mode="normal" in="SourceGraphic" in2="BackgroundImageFix" result="shape"/>
<feGaussianBlur stdDeviation="123" result="effect1_foregroundBlur_285_1248"/>
</filter>
<linearGradient id="paint0_linear_285_1248" x1="5.66566e-05" y1="763.78" x2="1914.48" y2="416.144" gradientUnits="userSpaceOnUse">
<stop stop-color="#1B45B4"/>
<stop offset="1" stop-color="#1C2792"/>
</linearGradient>
<linearGradient id="paint1_linear_285_1248" x1="1389.43" y1="383.948" x2="859.648" y2="262.445" gradientUnits="userSpaceOnUse">
<stop stop-color="#0097FE" stop-opacity="0.1"/>
<stop offset="1" stop-color="#0097FE" stop-opacity="0.05"/>
</linearGradient>
<linearGradient id="paint2_linear_285_1248" x1="436.584" y1="1004.98" x2="180.865" y2="939.549" gradientUnits="userSpaceOnUse">
<stop stop-color="#26A8E0" stop-opacity="0"/>
<stop offset="1" stop-color="#26A8E0" stop-opacity="0.86"/>
</linearGradient>
<clipPath id="clip0_285_1248">
<rect width="1850" height="1073" fill="white"/>
</clipPath>
<clipPath id="clip1_285_1248">
<rect width="537.545" height="1047.12" fill="white" transform="translate(-315 79)"/>
</clipPath>
<clipPath id="clip2_285_1248">
<rect width="537.545" height="1047.12" fill="white" transform="matrix(-1 0 0 1 2171.54 41)"/>
</clipPath>
</defs>
</svg>
