<svg width="1512" height="941" viewBox="0 0 1512 941" fill="none" xmlns="http://www.w3.org/2000/svg">
<g clip-path="url(#clip0_341_187)">
<rect width="1512" height="941" fill="white"/>
<g clip-path="url(#clip1_341_187)">
<path d="M-11.6734 677.54L-16.0867 673.401L-61.4379 631.158L-65.7884 626.752L-60.0566 625.277L-0.578445 607.375L5.21617 605.634L3.77209 611.782L-10.2921 671.659L-11.6734 677.54Z" fill="white" fill-opacity="0.06"/>
<path d="M107.933 575.62L104.638 581.139L73.8845 634.672L70.5895 640.19L67.8436 634.672L36.8155 581.139L33.5205 575.62L39.8359 575.62L101.618 575.62L107.933 575.62Z" fill="#26A8E0"/>
<path d="M44.1597 492.931L45.541 487.05L59.668 426.906L61.0493 421.025L65.6685 425.494L111.082 467.47L115.164 471.813L109.638 473.618L50.2231 491.253L44.1597 492.931Z" fill="white"/>
<path d="M4.03271 871.336L-67.3033 892.658L-7.79813 945.841L4.03271 871.336Z" fill="white" fill-opacity="0.06"/>
<path d="M-6.99137 681.742L-11.4048 677.603L-28.2944 749.51L-22.4996 747.768L-9.91607 743.672C-2.65666 728.454 3.59096 712.716 8.55825 696.395L-6.99137 681.742Z" fill="white" fill-opacity="0.06"/>
<path d="M-11.6736 677.539L-6.99158 681.742L8.49524 696.662L14.3344 671.802L14.9623 669.129L-6.68483 675.609L-11.6736 677.539Z" fill="white" fill-opacity="0.06"/>
<path d="M24.7315 599.781L11.342 603.688L5.5473 605.429L9.96073 609.569L23.6753 622.38C24.0273 614.847 24.648 607.377 24.7315 599.781Z" fill="white" fill-opacity="0.06"/>
<path d="M0.865483 601.227L5.21601 605.633L20.3476 541.212L19.8485 534.889L17.1168 535.658L-43.1044 553.103L-48.899 554.845L-44.5484 559.252L0.865483 601.227Z" fill="white" fill-opacity="0.06"/>
<path d="M20.3472 541.212L5.27841 605.367L11.073 603.625L24.5253 599.452C25.0968 580.124 23.725 560.622 20.3472 541.212Z" fill="white" fill-opacity="0.06"/>
<path d="M16.3103 535.469L19.0419 534.7C19.3558 533.364 18.658 531.507 18.2289 529.714L-27.2654 486.874L-31.6787 482.735L-48.5683 554.641L-42.7737 552.899L16.3103 535.469Z" fill="white" fill-opacity="0.06"/>
<path d="M17.7548 529.321C13.5084 509.99 7.46175 491.082 -0.447804 472.865L-27.164 480.411L-32.9586 482.152L-28.5453 486.292L17.7548 529.321Z" fill="white" fill-opacity="0.06"/>
<path d="M0.0266698 473.258C-5.80694 459.478 -12.572 446.042 -20.2686 432.952L-32.0096 482.939L-26.215 481.198L0.0266698 473.258Z" fill="#C7E8F5"/>
<path d="M6.36963 299.025L57.3096 339.196L-7.63177 358.636L6.36963 299.025Z" fill="white" fill-opacity="0.06"/>
</g>
<path d="M367.006 194.05L363.772 190.92L332.212 161.392L328.978 158.263L333.179 157.275L374.629 144.698L378.917 143.336L377.907 147.64L368.017 189.745L367.006 194.05Z" fill="#26A8E0" fill-opacity="0.5"/>
<path d="M1164.01 235.049L1161.11 232.25L1132.87 205.828L1129.98 203.028L1133.74 202.145L1170.83 190.891L1174.66 189.672L1173.76 193.523L1164.91 231.198L1164.01 235.049Z" fill="#1C75BA" fill-opacity="0.1"/>
<path d="M986.375 712.626L983.482 709.826L955.242 683.405L952.349 680.605L956.107 679.721L993.196 668.467L997.034 667.249L996.129 671.1L987.28 708.775L986.375 712.626Z" fill="#1C75BA" fill-opacity="0.1"/>
<g clip-path="url(#clip2_341_187)">
<path opacity="0.5" d="M1453.88 730.264L1451.28 731.2L1426.56 740.618L1423.97 741.555L1424.18 738.946L1424.5 712.423L1424.5 709.662L1426.99 711.41L1451.38 728.515L1453.88 730.264Z" fill="white"/>
<path d="M1553.62 577.013L1551.14 578.026L1526.31 587.368L1523.82 588.38L1523.93 585.695L1524.25 559.172L1524.46 556.563L1526.85 558.236L1551.13 575.265L1553.62 577.013Z" fill="white"/>
<path d="M1523.82 588.38L1521.44 586.708L1497.04 569.603L1494.55 567.854L1497.15 566.918L1521.86 557.5L1524.46 556.563L1524.25 559.172L1523.93 585.695L1523.82 588.38Z" fill="white"/>
<path d="M1553.09 608.906L1550.56 609.75L1525.89 619.337L1523.36 620.181L1523.39 617.588L1523.78 590.973L1523.82 588.381L1526.21 590.053L1550.6 607.158L1553.09 608.906Z" fill="white"/>
<path d="M1523.82 588.38L1521.4 589.3L1496.51 598.735L1494.19 599.731L1494.12 597.063L1494.62 570.523L1494.55 567.855L1497.04 569.603L1521.44 586.708L1523.82 588.38Z" fill="#9EDBF2"/>
<path d="M1523.35 620.181L1520.86 618.432L1496.58 601.403L1494.19 599.731L1496.51 598.735L1521.4 589.3L1523.82 588.38L1523.78 590.973L1523.39 617.588L1523.35 620.181Z" fill="#C7E8F5"/>
<path d="M1508.96 545.692L1524.46 556.563L1524.5 553.971L1525.09 531.91C1519.25 536.088 1513.89 540.738 1508.96 545.692Z" fill="white"/>
<path d="M1494.7 563.958L1494.5 565.615L1494.46 568.208L1496.89 567.288L1521.71 557.946L1524.14 557.026L1508.63 546.155C1504.55 550.598 1500.74 555.1 1497.31 559.999L1494.7 563.958Z" fill="#C7E8F5"/>
<path d="M1492.92 566.714L1494.44 567.778L1494.5 565.615L1494.8 564.033L1492.92 566.714Z" fill="white"/>
<path d="M1491.65 568.992L1494.14 567.98L1492.73 566.991L1491.65 568.992Z" fill="white"/>
<path d="M1494.55 567.855L1492.13 568.775L1491.87 569.144C1487.92 576.164 1484.57 583.47 1482.05 591.217L1494.41 599.883L1494.45 597.291L1494.62 570.523L1494.55 567.855Z" fill="#26A8E0"/>
</g>
<g opacity="0.2" clip-path="url(#clip3_341_187)">
<path d="M1493.23 337.693L1496.49 335.987L1529.92 316.704L1533.18 314.827L1529.92 312.95L1496.49 293.667L1493.23 291.79V295.715V333.939V337.693Z" fill="white" fill-opacity="0.06"/>
<path d="M1493.23 291.79L1496.49 289.913L1529.92 270.801L1533.18 268.753L1529.92 267.047L1496.49 247.764L1493.23 245.887V249.812V288.036V291.79Z" fill="white" fill-opacity="0.06"/>
<path d="M1533.18 314.827V311.072V272.677V268.753L1529.92 270.8L1496.49 289.912L1493.23 291.79L1496.49 293.667L1529.92 312.949L1533.18 314.827Z" fill="white" fill-opacity="0.06"/>
<path d="M1533.18 360.901V356.976V318.581V314.827L1529.92 316.704L1496.49 335.987L1493.23 337.693L1496.49 339.741L1529.92 358.853L1533.18 360.901Z" fill="white" fill-opacity="0.06"/>
<path d="M1433.24 261.074L1436.66 259.026L1469.92 239.914L1473.35 237.866L1469.92 236.16L1436.66 216.877L1433.24 214.83V218.754V257.149V261.074Z" fill="#26A8E0"/>
<path d="M1485.69 172.168V168.414V130.019V126.265L1482.26 128.313L1448.83 147.254L1445.75 149.302L1448.83 151.179L1482.26 170.291L1485.69 172.168Z" fill="white"/>
<path d="M1505.58 524.549V520.795V482.571V478.646L1502.32 480.523L1468.89 499.635L1465.64 501.512L1468.89 503.56L1502.32 522.672L1505.58 524.549Z" fill="white" fill-opacity="0.06"/>
<path d="M1520.15 437.52L1523.58 435.643V462.434C1516.38 457.827 1509.52 452.878 1502.83 447.418L1520.15 437.52Z" fill="white" fill-opacity="0.06"/>
<path d="M1456.21 406.804L1496.32 429.841L1452.78 453.561L1456.21 406.804Z" fill="white" fill-opacity="0.06"/>
<path d="M1529.92 405.61L1533.18 407.487L1529.92 409.364L1523.06 413.289C1517.58 406.975 1512.61 400.149 1507.98 393.153L1529.92 405.61Z" fill="white"/>
<path d="M1529.92 362.608L1533.18 360.56V406.464L1529.92 404.586L1508.49 392.129C1505.58 388.034 1503.01 383.597 1500.61 379.16L1529.92 362.608Z" fill="white" fill-opacity="0.06"/>
<path d="M1493.23 341.618V337.864L1496.49 339.741L1529.92 359.024L1533.18 360.901L1529.92 362.778L1500.61 379.672C1497.86 374.553 1495.46 369.433 1493.23 364.655V341.618Z" fill="#26A8E0"/>
<path d="M1485.52 342.301L1489.81 339.741L1493.06 337.864V364.143C1490.15 356.976 1487.58 349.639 1485.52 342.301Z" fill="white" fill-opacity="0.06"/>
<path d="M1489.81 293.667L1493.06 291.79V337.693L1489.81 335.816L1482.78 331.55C1480.55 321.312 1479.01 310.902 1478.32 300.322L1489.81 293.667Z" fill="white" fill-opacity="0.06"/>
<path d="M1493.24 291.79L1489.81 293.667L1478.32 300.493V284.623V282.916L1490.49 289.913L1493.24 291.79Z" fill="white" fill-opacity="0.06"/>
<path d="M1482.26 239.573L1489.81 243.839L1493.06 245.716L1489.81 247.593L1479.69 253.395C1480.55 248.788 1481.23 244.18 1482.26 239.573Z" fill="white" fill-opacity="0.06"/>
<path d="M1496.49 243.839L1493.23 245.887V204.762L1494.43 201.007L1495.98 201.861L1529.92 220.973L1533.18 222.85L1529.92 224.898L1496.49 243.839Z" fill="white" fill-opacity="0.06"/>
<path d="M1493.24 204.762V245.717L1489.98 243.84L1482.44 239.403C1484.84 227.628 1488.44 216.025 1493.24 204.762Z" fill="white" fill-opacity="0.06"/>
<path d="M1496.49 201.861L1494.95 201.008C1494.95 200.154 1495.64 199.131 1496.15 198.107L1529.75 178.653L1533.01 176.776V222.679L1529.75 220.802L1496.49 201.861Z" fill="white" fill-opacity="0.06"/>
<path d="M1496.49 197.936C1501.81 186.844 1508.15 176.264 1515.52 166.367L1530.61 174.729L1533.86 176.606L1530.61 178.483L1496.49 197.936Z" fill="white" fill-opacity="0.06"/>
<path d="M1536.09 60.2257L1499.58 77.2901L1536.09 98.2794V60.2257Z" fill="white" fill-opacity="0.06"/>
</g>
</g>
<defs>
<clipPath id="clip0_341_187">
<rect width="1512" height="941" fill="white"/>
</clipPath>
<clipPath id="clip1_341_187">
<rect width="866" height="848" fill="white" transform="translate(-666.097 102) rotate(13.2182)"/>
</clipPath>
<clipPath id="clip2_341_187">
<rect width="354.308" height="408.928" fill="white" transform="translate(1359 696) rotate(-54.9612)"/>
</clipPath>
<clipPath id="clip3_341_187">
<rect width="537.545" height="1047.12" fill="white" transform="matrix(-1 0 0 1 1970.78 -127.414)"/>
</clipPath>
</defs>
</svg>
