<svg width="18" height="14" viewBox="0 0 18 14" fill="none" xmlns="http://www.w3.org/2000/svg">
<path d="M0.0255127 7.07031L15.8755 7.07031" stroke="#F9FAFB" stroke-width="1.902" stroke-miterlimit="10"/>
<path d="M10.3527 1.52271L15.9002 7.07021L10.3527 12.6177" stroke="#F9FAFB" stroke-width="1.902" stroke-miterlimit="10" stroke-linecap="square"/>
</svg>
