<svg width="57" height="58" viewBox="0 0 57 58" fill="none" xmlns="http://www.w3.org/2000/svg">
<g filter="url(#filter0_dd_291_70)">
<rect x="1.64844" y="1.74219" width="53.6589" height="53.6589" rx="4.95312" fill="#E8E9F4"/>
<rect x="2.0612" y="2.15495" width="52.8333" height="52.8333" rx="4.54036" stroke="#FFFEFF" stroke-width="0.825521"/>
</g>
<path d="M30.8968 20.2625C32.1914 21.0742 33.0993 22.4478 33.2645 24.0423C33.7925 24.289 34.3785 24.4308 34.9998 24.4308C37.268 24.4308 39.1064 22.5925 39.1064 20.3247C39.1064 18.0565 37.268 16.2181 34.9998 16.2181C32.7533 16.2188 30.931 18.0244 30.8968 20.2625ZM28.2065 28.6705C30.4747 28.6705 32.313 26.8318 32.313 24.564C32.313 22.2962 30.4743 20.4578 28.2065 20.4578C25.9387 20.4578 24.0993 22.2965 24.0993 24.5643C24.0993 26.8321 25.9387 28.6705 28.2065 28.6705ZM29.9484 28.9504H26.4639C23.5647 28.9504 21.206 31.3094 21.206 34.2087V38.47L21.2168 38.5367L21.5103 38.6286C24.2771 39.4931 26.6809 39.7814 28.6594 39.7814C32.5237 39.7814 34.7636 38.6796 34.9016 38.6094L35.1759 38.4707H35.2053V34.2087C35.2063 31.3094 32.8477 28.9504 29.9484 28.9504ZM36.7424 24.7111H33.2848C33.2474 26.0945 32.6569 27.3402 31.7229 28.2362C34.2999 29.0025 36.1854 31.3922 36.1854 34.2149V35.5281C39.5994 35.403 41.5667 34.4354 41.6963 34.3704L41.9706 34.2314H42V29.9686C42 27.0698 39.6413 24.7111 36.7424 24.7111ZM21.0009 24.4315C21.8042 24.4315 22.5517 24.1971 23.1848 23.7977C23.3861 22.4849 24.0899 21.3377 25.0952 20.5563C25.0994 20.4795 25.1067 20.4033 25.1067 20.3257C25.1067 18.0576 23.268 16.2192 21.0009 16.2192C18.7324 16.2192 16.8943 18.0576 16.8943 20.3257C16.8943 22.5928 18.7324 24.4315 21.0009 24.4315ZM24.6888 28.2362C23.7593 27.3448 23.1708 26.1057 23.1279 24.7307C22.9996 24.7212 22.8728 24.7111 22.7421 24.7111H19.2579C16.3587 24.7111 14 27.0698 14 29.9686V34.2307L14.0108 34.2964L14.3044 34.389C16.5239 35.0819 18.5049 35.4013 20.2255 35.5019V34.2149C20.2262 31.3922 22.111 29.0032 24.6888 28.2362Z" fill="#2B388F"/>
<defs>
<filter id="filter0_dd_291_70" x="-0.00260425" y="0.0911458" width="56.961" height="56.9609" filterUnits="userSpaceOnUse" color-interpolation-filters="sRGB">
<feFlood flood-opacity="0" result="BackgroundImageFix"/>
<feColorMatrix in="SourceAlpha" type="matrix" values="0 0 0 0 0 0 0 0 0 0 0 0 0 0 0 0 0 0 127 0" result="hardAlpha"/>
<feOffset/>
<feGaussianBlur stdDeviation="0.41276"/>
<feColorMatrix type="matrix" values="0 0 0 0 0.0901961 0 0 0 0 0.101961 0 0 0 0 0.121569 0 0 0 0.07 0"/>
<feBlend mode="normal" in2="BackgroundImageFix" result="effect1_dropShadow_291_70"/>
<feColorMatrix in="SourceAlpha" type="matrix" values="0 0 0 0 0 0 0 0 0 0 0 0 0 0 0 0 0 0 127 0" result="hardAlpha"/>
<feOffset/>
<feGaussianBlur stdDeviation="0.825521"/>
<feColorMatrix type="matrix" values="0 0 0 0 0.0901961 0 0 0 0 0.101961 0 0 0 0 0.121569 0 0 0 0.12 0"/>
<feBlend mode="normal" in2="effect1_dropShadow_291_70" result="effect2_dropShadow_291_70"/>
<feBlend mode="normal" in="SourceGraphic" in2="effect2_dropShadow_291_70" result="shape"/>
</filter>
</defs>
</svg>
