<svg width="58" height="57" viewBox="0 0 58 57" fill="none" xmlns="http://www.w3.org/2000/svg">
<g filter="url(#filter0_dd_132_3104)">
<rect x="2.14844" y="1.67188" width="53.6589" height="53.6589" rx="4.95312" fill="#E8E9F4"/>
<rect x="2.5612" y="2.08464" width="52.8333" height="52.8333" rx="4.54036" stroke="#FFFEFF" stroke-width="0.825521"/>
<path d="M39.1095 16C34.8213 16 29.0673 18.942 25.2033 24H22.0001C19.6855 24 18.3589 25.7276 17.4455 27.5546L16.2227 30H19.1095H22.0001L25.0001 33L28.0001 36V38.8906V41.7774L30.4455 40.5548C32.2725 39.6412 34.0001 38.3146 34.0001 36V32.7968C39.0581 28.9328 42.0001 23.1788 42.0001 18.8906V16H39.1095ZM34.0001 22C35.1047 22 36.0001 22.8954 36.0001 24C36.0001 25.1046 35.1047 26 34.0001 26C32.8955 26 32.0001 25.1046 32.0001 24C32.0001 22.8954 32.8955 22 34.0001 22ZM21.0001 34L20.0001 35C18.5557 36.4444 18.0001 40 18.0001 40C18.0001 40 21.3961 39.604 23.0001 38L24.0001 37L21.0001 34Z" fill="#2B388F"/>
</g>
<defs>
<filter id="filter0_dd_132_3104" x="0.497396" y="0.0208333" width="56.9609" height="56.9609" filterUnits="userSpaceOnUse" color-interpolation-filters="sRGB">
<feFlood flood-opacity="0" result="BackgroundImageFix"/>
<feColorMatrix in="SourceAlpha" type="matrix" values="0 0 0 0 0 0 0 0 0 0 0 0 0 0 0 0 0 0 127 0" result="hardAlpha"/>
<feOffset/>
<feGaussianBlur stdDeviation="0.41276"/>
<feColorMatrix type="matrix" values="0 0 0 0 0.0901961 0 0 0 0 0.101961 0 0 0 0 0.121569 0 0 0 0.07 0"/>
<feBlend mode="normal" in2="BackgroundImageFix" result="effect1_dropShadow_132_3104"/>
<feColorMatrix in="SourceAlpha" type="matrix" values="0 0 0 0 0 0 0 0 0 0 0 0 0 0 0 0 0 0 127 0" result="hardAlpha"/>
<feOffset/>
<feGaussianBlur stdDeviation="0.825521"/>
<feColorMatrix type="matrix" values="0 0 0 0 0.0901961 0 0 0 0 0.101961 0 0 0 0 0.121569 0 0 0 0.12 0"/>
<feBlend mode="normal" in2="effect1_dropShadow_132_3104" result="effect2_dropShadow_132_3104"/>
<feBlend mode="normal" in="SourceGraphic" in2="effect2_dropShadow_132_3104" result="shape"/>
</filter>
</defs>
</svg>
