<svg width="142" height="57" viewBox="0 0 142 57" fill="none" xmlns="http://www.w3.org/2000/svg">
<path d="M83.2117 14.619C82.6134 10.7227 81.5305 6.92075 79.9901 3.30374C82.6845 4.30889 85.2029 5.75888 87.4414 7.60008C89.8326 9.56685 91.8603 11.9437 93.4342 14.619H83.2117Z" stroke="#2B388F" stroke-width="2"/>
<path d="M58.7786 14.619H48.5658C50.1398 11.9437 52.1674 9.56685 54.5586 7.60008C56.796 5.75986 59.3129 4.31043 62.0056 3.30534C60.4607 6.92055 59.3759 10.7223 58.7786 14.619Z" stroke="#2B388F" stroke-width="2"/>
<path d="M74.5955 7.12918C75.4677 9.56453 76.1335 12.0702 76.586 14.619H65.4065C65.8638 12.0685 66.5346 9.56144 67.4118 7.12523C68.6075 4.03532 69.7398 2.4566 70.4752 1.70792H70.4763H70.4781H70.4799H70.4817H70.4835H70.4854H70.4872H70.489H70.4908H70.4926H70.4944H70.4962H70.498H70.4998H70.5016H70.5035H70.5053H70.5071H70.5089H70.5107H70.5125H70.5143H70.5161H70.518H70.5198H70.5216H70.5234H70.5252H70.527H70.5289H70.5307H70.5325H70.5343H70.5361H70.538H70.5398H70.5416H70.5434H70.5452H70.5471H70.5489H70.5507H70.5525H70.5544H70.5562H70.558H70.5598H70.5617H70.5635H70.5653H70.5671H70.569H70.5708H70.5726H70.5744H70.5763H70.5781H70.5799H70.5818H70.5836H70.5854H70.5873H70.5891H70.5909H70.5928H70.5946H70.5964H70.5983H70.6001H70.6019H70.6038H70.6056H70.6074H70.6093H70.6111H70.613H70.6148H70.6166H70.6185H70.6203H70.6222H70.624H70.6258H70.6277H70.6295H70.6314H70.6332H70.6351H70.6369H70.6388H70.6406H70.6424H70.6443H70.6461H70.648H70.6498H70.6517H70.6535H70.6554H70.6572H70.6591H70.6609H70.6628H70.6647H70.6665H70.6684H70.6702H70.6721H70.6739H70.6758H70.6776H70.6795H70.6814H70.6832H70.6851H70.6869H70.6888H70.6907H70.6925H70.6944H70.6962H70.6981H70.7H70.7018H70.7037H70.7056H70.7074H70.7093H70.7112H70.713H70.7149H70.7168H70.7187H70.7205H70.7224H70.7243H70.7261H70.728H70.7299H70.7318H70.7336H70.7355H70.7374H70.7393H70.7411H70.743H70.7449H70.7468H70.7487H70.7505H70.7524H70.7543H70.7562H70.7581H70.76H70.7618H70.7637H70.7656H70.7675H70.7694H70.7713H70.7732H70.775H70.7769H70.7788H70.7807H70.7826H70.7845H70.7864H70.7883H70.7902H70.7921H70.794H70.7959H70.7978H70.7997H70.8016H70.8035H70.8054H70.8073H70.8092H70.8111H70.813H70.8149H70.8168H70.8187H70.8206H70.8225H70.8244H70.8263H70.8282H70.8301H70.832H70.8339H70.8358H70.8378H70.8397H70.8416H70.8435H70.8454H70.8473H70.8492H70.8512H70.8531H70.855H70.8569H70.8588H70.8607H70.8627H70.8646H70.8665H70.8684H70.8704H70.8723H70.8742H70.8761H70.8781H70.88H70.8819H70.8838H70.8858H70.8877H70.8896H70.8916H70.8935H70.8954H70.8974H70.8993H70.9012H70.9032H70.9051H70.907H70.909H70.9109H70.9129H70.9148H70.9167H70.9187H70.9206H70.9226H70.9245H70.9265H70.9284H70.9304H70.9323H70.9342H70.9362H70.9381H70.9401H70.9421H70.944H70.946H70.9479H70.9499H70.9518H70.9538H70.9557H70.9577H70.9597H70.9616H70.9636H70.9655H70.9675H70.9695H70.9714H70.9734H70.9754H70.9773H70.9793H70.9813H70.9832H70.9852H70.9872H70.9891H70.9911H70.9931H70.9951H70.997H70.999H71.001H71.003H71.0049H71.0069H71.0089H71.0109H71.0129H71.0148H71.0168H71.0188H71.5627C72.2991 2.45652 73.4344 4.03534 74.5955 7.12918Z" stroke="#2B388F" stroke-width="2"/>
<path d="M44.8969 28.175V28.1737C44.8969 25.9914 45.1616 23.8185 45.6844 21.7038H57.9382C57.7802 23.8025 57.7044 25.9651 57.7044 28.1737C57.7044 30.401 57.7954 32.7482 57.9656 34.9679H45.7674C45.1868 32.7529 44.8939 30.4693 44.8969 28.175Z" stroke="#2B388F" stroke-width="2"/>
<path d="M58.8401 42.0527C59.442 45.8364 60.506 49.5278 62.0063 53.042C59.3682 52.0572 56.8986 50.6457 54.6952 48.8576C52.344 46.9496 50.3377 44.6468 48.7617 42.0527H58.8401Z" stroke="#2B388F" stroke-width="2"/>
<path d="M67.4412 49.2347C66.5927 46.8988 65.9347 44.4967 65.4737 42.0527H76.5689C76.0995 44.4931 75.4368 46.8918 74.587 49.2253C73.4256 52.3207 72.2899 53.9002 71.5533 54.649H71.0094H71.0076H71.0058H71.004H71.0021H71.0003H70.9985H70.9967H70.9949H70.993H70.9912H70.9894H70.9876H70.9858H70.984H70.9821H70.9803H70.9785H70.9767H70.9749H70.9731H70.9713H70.9694H70.9676H70.9658H70.964H70.9622H70.9604H70.9586H70.9567H70.9549H70.9531H70.9513H70.9495H70.9477H70.9459H70.944H70.9422H70.9404H70.9386H70.9368H70.935H70.9332H70.9314H70.9296H70.9277H70.9259H70.9241H70.9223H70.9205H70.9187H70.9169H70.9151H70.9133H70.9114H70.9096H70.9078H70.906H70.9042H70.9024H70.9006H70.8988H70.897H70.8952H70.8934H70.8915H70.8897H70.8879H70.8861H70.8843H70.8825H70.8807H70.8789H70.8771H70.8753H70.8735H70.8717H70.8699H70.868H70.8662H70.8644H70.8626H70.8608H70.859H70.8572H70.8554H70.8536H70.8518H70.85H70.8482H70.8464H70.8446H70.8427H70.8409H70.8391H70.8373H70.8355H70.8337H70.8319H70.8301H70.8283H70.8265H70.8247H70.8229H70.8211H70.8193H70.8175H70.8157H70.8139H70.812H70.8102H70.8084H70.8066H70.8048H70.803H70.8012H70.7994H70.7976H70.7958H70.794H70.7922H70.7904H70.7886H70.7868H70.785H70.7832H70.7814H70.7796H70.7777H70.7759H70.7741H70.7723H70.7705H70.7687H70.7669H70.7651H70.7633H70.7615H70.7597H70.7579H70.7561H70.7543H70.7525H70.7507H70.7489H70.7471H70.7452H70.7434H70.7416H70.7398H70.738H70.7362H70.7344H70.7326H70.7308H70.729H70.7272H70.7254H70.7236H70.7218H70.72H70.7182H70.7164H70.7145H70.7127H70.7109H70.7091H70.7073H70.7055H70.7037H70.7019H70.7001H70.6983H70.6965H70.6947H70.6929H70.6911H70.6893H70.6874H70.6856H70.6838H70.682H70.6802H70.6784H70.6766H70.6748H70.673H70.6712H70.6694H70.6676H70.6658H70.6639H70.6621H70.6603H70.6585H70.6567H70.6549H70.6531H70.6513H70.6495H70.6477H70.6459H70.644H70.6422H70.6404H70.6386H70.6368H70.635H70.6332H70.6314H70.6296H70.6277H70.6259H70.6241H70.6223H70.6205H70.6187H70.6169H70.6151H70.6133H70.6114H70.6096H70.6078H70.606H70.6042H70.6024H70.6006H70.5988H70.5969H70.5951H70.5933H70.5915H70.5897H70.5879H70.5861H70.5842H70.5824H70.5806H70.5788H70.577H70.5752H70.5733H70.5715H70.5697H70.5679H70.5661H70.5643H70.5624H70.5606H70.5588H70.557H70.5552H70.5534H70.5515H70.5497H70.5479H70.5461H70.5443H70.5424H70.5406H70.5388H70.537H70.5352H70.5333H70.5315H70.5297H70.5279H70.5261H70.5242H70.5224H70.5206H70.5188H70.517H70.5151H70.5133H70.5115H70.5097H70.5078H70.506H70.5042H70.5024H70.5005H70.4987H70.4969H70.4951H70.4932H70.4914H70.4896H70.4878H70.4859H70.4841H70.4823H70.4804H70.4786H70.4768H70.475H70.4731H70.4713H70.4695H70.4676H70.4658C69.7316 53.901 68.6031 52.3232 67.4412 49.2347Z" stroke="#2B388F" stroke-width="2"/>
<path d="M77.7894 28.1737V28.1742C77.7905 30.4422 77.6917 32.7091 77.4931 34.9679H64.5054C64.3038 32.7099 64.2054 30.4435 64.2106 28.176V28.1737C64.2106 25.9876 64.296 23.8183 64.4726 21.7038H77.5355C77.7249 23.81 77.7894 25.9775 77.7894 28.1737Z" stroke="#2B388F" stroke-width="2"/>
<path d="M79.9939 53.042C81.4937 49.5283 82.555 45.8366 83.1518 42.0527H93.2384C91.6623 44.6468 89.656 46.9496 87.3048 48.8576C85.1015 50.6456 82.6319 52.0571 79.9939 53.042Z" stroke="#2B388F" stroke-width="2"/>
<path d="M97.1031 28.1749V28.175C97.1061 30.4693 96.8132 32.7529 96.2326 34.9679H84.0261C84.1977 32.7762 84.2957 30.5074 84.2957 28.1737C84.2957 25.8597 84.213 23.7735 84.0535 21.7038H96.3072C96.833 23.8185 97.1005 25.9919 97.1031 28.1749Z" stroke="#2B388F" stroke-width="2"/>
<path d="M70.7354 1.46149L70.775 1.42699L70.8107 1.38853C70.8715 1.32306 70.9417 1.26915 71.018 1.22815C71.1003 1.27103 71.1763 1.32732 71.2428 1.39568L71.2713 1.42503L71.3022 1.45195C72.0112 2.07043 73.2869 3.6329 74.5955 7.11956C75.4683 9.55802 76.1343 12.0669 76.5865 14.619H65.4065C65.8638 12.0685 66.5346 9.56144 67.4118 7.12523C68.7593 3.643 70.0263 2.08006 70.7354 1.46149Z" stroke="#2B388F" stroke-width="2"/>
<path d="M71.2928 54.8954L71.2619 54.9223L71.2334 54.9517C71.1669 55.02 71.0909 55.0763 71.0086 55.1192C70.9323 55.0782 70.8621 55.0243 70.8013 54.9588L70.7656 54.9204L70.726 54.8859C70.018 54.2683 68.7509 52.7063 67.4411 49.2251C66.5933 46.8923 65.9355 44.4934 65.4741 42.0527H76.5689C76.0995 44.4931 75.4368 46.8918 74.5871 49.2252C73.2782 52.7137 72.002 54.2768 71.2928 54.8954Z" stroke="#2B388F" stroke-width="2"/>
<path d="M77.7894 28.1737V28.1742C77.7905 30.4422 77.6917 32.7091 77.4931 34.9679H64.5054C64.3038 32.7099 64.2054 30.4435 64.2106 28.176V28.1737C64.2106 25.9876 64.296 23.8183 64.4726 21.7038H77.5355C77.7249 23.81 77.7894 25.9775 77.7894 28.1737Z" stroke="#2B388F" stroke-width="2"/>
<path d="M70.7354 1.46149L70.775 1.42699L70.8107 1.38853C70.8715 1.32306 70.9417 1.26915 71.018 1.22815C71.1003 1.27103 71.1763 1.32732 71.2428 1.39568L71.2713 1.42503L71.3022 1.45195C72.0112 2.07043 73.2869 3.6329 74.5955 7.11956C75.4683 9.55802 76.1343 12.0669 76.5865 14.619H65.4065C65.8638 12.0685 66.5346 9.56144 67.4118 7.12523C68.7593 3.643 70.0263 2.08006 70.7354 1.46149Z" stroke="#2B388F" stroke-width="2"/>
<path d="M71.2928 54.8954L71.2619 54.9223L71.2334 54.9517C71.1669 55.02 71.0909 55.0763 71.0086 55.1192C70.9323 55.0782 70.8621 55.0243 70.8013 54.9588L70.7656 54.9204L70.726 54.8859C70.018 54.2683 68.7509 52.7063 67.4411 49.2251C66.5933 46.8923 65.9355 44.4934 65.4741 42.0527H76.5689C76.0995 44.4931 75.4368 46.8918 74.5871 49.2252C73.2782 52.7137 72.002 54.2768 71.2928 54.8954Z" stroke="#2B388F" stroke-width="2"/>
<path d="M77.7894 28.1737V28.1742C77.7905 30.4422 77.6917 32.7091 77.4931 34.9679H64.5054C64.3038 32.7099 64.2054 30.4435 64.2106 28.176V28.1737C64.2106 25.9876 64.296 23.8183 64.4726 21.7038H77.5355C77.7249 23.81 77.7894 25.9775 77.7894 28.1737Z" stroke="#2B388F" stroke-width="2"/>
</svg>
